Section 3 Accesing the data | Open Trade Statistics
…
if (!file.exists(rda_countries)) {
  countries <- as_tibble(fromJSON(
    "https://api.tradestatistics.io/countries"
  ))

  save(countries, file = rda_countries, compress = "xz")

  countries
} else {
  load(rda_countries)

  countries
}

## # A tibble: 249 × 6
##    country_iso country_name_english country_fullname_eng… continent_id continent
##    <chr>       <chr>                <chr>                        <int> <chr>    
##  1 afg         Afghanistan          Afghanistan                      1 Asia     
##  2 alb         Albania              Albania                          2 Europe   
##  3 dza         Algeria              Algeria                          3 Africa   
##  4 asm         American Samoa       American Samoa                   4 Oceania  
##  5 and         Andorra              Andorra                          2 Europe   
##  6 ago         Angola               Angola                           3 Africa   
##  7 aia         Anguilla             Anguilla                         5 Americas 
##  8 atg         Antigua and Barbuda  Antigua and Barbuda              5 Americas 
##  9 arg         Argentina            Argentina                        5 Americas 
## 10 arm         Armenia              Armenia                          1 Asia     
## # … with 239 more rows, and 1 more variable: eu28_member <int>
…
if (!file.exists(rda_commodities)) {
  commodities <- as_tibble(fromJSON(
    "https://api.tradestatistics.io/commodities"
  ))

  save(commodities, file = rda_commodities, compress = "xz")

  commodities
} else {
  load(rda_commodities)

  commodities
}

## # A tibble: 1,340 × 4
##    commodity_code commodity_fullname_english       group_code group_fullname_en…
##    <chr>          <chr>                            <chr>      <chr>             
##  1 0101           Horses, asses, mules and hinnie… 01         Animals; live     
##  2 0102           Bovine animals; live             01         Animals; live     
##  3 0103           Swine; live                      01         Animals; live     
##  4 0104           Sheep and goats; live            01         Animals; live     
##  5 0105           Poultry; live, fowls of the spe… 01         Animals; live     
##  6 0106           Animals, n.e.s. in chapter 01; … 01         Animals; live     
##  7 0201           Meat of bovine animals; fresh o… 02         Meat and edible m…
##  8 0202           Meat of bovine animals; frozen   02         Meat and edible m…
##  9 0203           Meat of swine; fresh, chilled o… 02         Meat and edible m…
## 10 0204           Meat of sheep or goats; fresh, … 02         Meat and edible m…
## # … with 1,330 more rows
…
countries includes some meta-codes, c-xx where xx must the first two letters of a continent and all, this is:

## # A tibble: 6 × 2
##   Alias Meaning                                      
##   <chr> <chr>                                        
## 1 c-af  Alias for all valid ISO codes in Africa      
## 2 c-am  Alias for all valid ISO codes in the Americas
## 3 c-as  Alias for all valid ISO codes in Asia        
## 4 c-eu  Alias for all valid ISO codes in Europe      
## 5 c-oc  Alias for all valid ISO codes in Oceania     
## 6 all   Alias for all valid ISO codes in the World

commodities also includes some meta-codes, xx for the first two digits of a code and those digits are the commodity group and all, this is:

## # A tibble: 98 × 2
##    Alias Meaning                                                                
##    <chr> <chr>                                                                  
##  1 01    Alias for all codes in the group Animals; live                         
##  2 02    Alias for all codes in the group Meat and edible meat offal            
##  3 03    Alias for all codes in the group Fish and crustaceans, molluscs and ot…
##  4 04    Alias for all codes in the group Dairy produce; birds' eggs; natural h…
##  5 05    Alias for all codes in the group Animal originated products; not elsew…
##  6 06    Alias for all codes in the group Trees and other plants, live; bulbs, …
##  7 07    Alias for all codes in the group Vegetables and certain roots and tube…
##  8 08    Alias for all codes in the group Fruit and nuts, edible; peel of citru…
##  9 09    Alias for all codes in the group Coffee, tea, mate and spices          
## 10 10    Alias for all codes in the group Cereals                               
## # … with 88 more rows
…
By default the API takes c = "all" by default.

You can always skip c, but y, r and p are required to return data.

3.2.4 Available reporters

The only applicable filter is by year.

# Available reporters (filter by year)
as_tibble(fromJSON(
  "https://api.tradestatistics.io/reporters?y=2018"
))

## # A tibble: 151 × 1
##    reporter_iso 
##    <chr>        
##  1 0-unspecified
##  2 abw          
##  3 afg          
##  4 ago          
##  5 alb          
##  6 and          
##  7 are          
##  8 arg          
##  9 arm          
## 10 aus          
## # … with 141 more rows
…
import_value_usd: Imports measured in nominal United States Dollars (USD)

3.2.6 YRC (Year, Reporter and Commodity Code)

The only applicable filter is by year, reporter and commodity code.

# Year - Reporter - Commodity Code

yrc <- as_tibble(fromJSON(
  "https://api.tradestatistics.io/yrc?y=2018&r=chl"
))

yrc

## # A tibble: 4,875 × 5
##     year reporter_iso commodity_code trade_value_usd_exp trade_value_usd_imp
##    <int> <chr>        <chr>                        <dbl>               <dbl>
##  1  2018 chl          010121                     1030550             1392475
##  2  2018 chl          010129                     5364382             7412974
##  3  2018 chl          010130                           0                4170
##  4  2018 chl          010229                      505423                   0
##  5  2018 chl          010290                           0               12140
##  6  2018 chl          010310                       18500             1241532
##  7  2018 chl          010511                           0             5430990
##  8  2018 chl          010613                      178030                   0
##  9  2018 chl          010619                           0              290760
## 10  2018 chl          010620                           0               58327
## # … with 4,865 more rows
…
